<svg width="23" height="20" viewBox="0 0 23 20" fill="none" xmlns="http://www.w3.org/2000/svg">
<path d="M20.8155 0.623164L1.43842 8.25991C0.116016 8.80276 0.123666 9.55671 1.1958 9.89292L6.17066 11.479L17.681 4.05674C18.2253 3.7183 18.7226 3.90036 18.3138 4.2712L8.98814 12.873H8.98596L8.98814 12.8741L8.64497 18.115C9.14771 18.115 9.36956 17.8793 9.65153 17.6012L12.0679 15.1997L17.0942 18.994C18.0209 19.5156 18.6865 19.2476 18.9171 18.1172L22.2166 2.2249C22.5543 0.840973 21.6996 0.214351 20.8155 0.623164Z" fill="white"/>
</svg>
